// Jest Snapshot v1, https://goo.gl/fbAQLP

exports[`Search component snapshot search component 1`] = `
<form
  data-test="form"
  onSubmit={[Function]}
>
  <input
    data-test="input"
    onChange={[Function]}
    placeholder="Search"
    type="sumbit"
  />
</form>
`;
